Model selection
…
main_educ_vs_not

## $means_ns_sds_and_ses
## # A tibble: 220 × 7
##      age source                                 mean seOfmean    sd seOfsd     n
##    <dbl> <fct>                                 <dbl>    <dbl> <dbl>  <dbl> <int>
##  1    11 RPP_brm_nor                            30.9    0.316  7.83  0.211    NA
##  2    11 RPP_brm_nor_s_by_educ                  31.2    0.344  7.80  0.237    NA
##  3    11 RPP_brm_nor_s_by_educ_main_random_ed…  31.1    0.334  7.87  0.239    NA
##  4    11 Raw                                    32.2    0.244  7.36 NA       909
##  5    12 RPP_brm_nor                            32.2    0.284  7.87  0.216    NA
##  6    12 RPP_brm_nor_s_by_educ                  32.3    0.295  7.87  0.225    NA
##  7    12 RPP_brm_nor_s_by_educ_main_random_ed…  32.2    0.302  7.90  0.226    NA
##  8    12 Raw                                    34.3    0.697  7.38 NA       112
##  9    13 RPP_brm_nor                            33.7    0.283  7.89  0.216    NA
## 10    13 RPP_brm_nor_s_by_educ                  33.6    0.295  7.94  0.227    NA
## # ℹ 210 more rows
## 
## $overall_estimates
…
rpp_nor_ints

## $means_ns_sds_and_ses
## # A tibble: 110 × 7
##      age source            mean seOfmean    sd seOfsd     n
##    <dbl> <fct>            <dbl>    <dbl> <dbl>  <dbl> <int>
##  1    11 RPP_brm_nor_ints  31.4    0.331  7.77  0.232    NA
##  2    11 Raw               32.2    0.244  7.36 NA       909
##  3    12 RPP_brm_nor_ints  32.2    0.299  7.88  0.227    NA
##  4    12 Raw               34.3    0.697  7.38 NA       112
##  5    13 RPP_brm_nor_ints  33.5    0.299  7.95  0.227    NA
##  6    13 Raw               36.4    0.674  7.97 NA       140
##  7    14 RPP_brm_nor_ints  34.5    0.301  8.05  0.233    NA
##  8    14 Raw               37.1    0.730  8.32 NA       130
##  9    15 RPP_brm_nor_ints  35.6    0.328  8.07  0.232    NA
## 10    15 Raw               36.4    0.861  8.21 NA        91
## # ℹ 100 more rows
## 
## $overall_estimates
…
