RPP vs. Alternative norming methods
…
RPP_vs_raw[-6]

## $means_ns_sds_and_ses
## # A tibble: 110 × 7
##      age source  mean seOfmean    sd seOfsd     n
##    <dbl> <fct>  <dbl>    <dbl> <dbl>  <dbl> <int>
##  1    11 RPP     30.9    0.366  7.88  0.231    NA
##  2    11 Raw     32.2    0.244  7.36 NA       909
##  3    12 RPP     32.2    0.321  7.99  0.230    NA
##  4    12 Raw     34.3    0.697  7.38 NA       112
##  5    13 RPP     33.6    0.316  8.08  0.224    NA
##  6    13 Raw     36.4    0.674  7.97 NA       140
##  7    14 RPP     34.8    0.338  8.07  0.220    NA
##  8    14 Raw     37.1    0.730  8.32 NA       130
##  9    15 RPP     35.7    0.381  8.13  0.239    NA
## 10    15 Raw     36.4    0.861  8.21 NA        91
## # ℹ 100 more rows
## 
## $overall_estimates
…
